A1B1001
A1B1001
A1B1002
A1B2001
A1B2001
A1B3002
A1B3001
A1B3001
A1B3002
A2B1001
A2B1001
A2B1002
A2B2001
A2B2001
A2B3002
A2B3001
A2B3001
A2B3002
A3B1001
A3B1001
A3B1002
A3B2001
A3B2001
A3B3002
A3B3001
A3B3001
A3B3002
